{
    "annotations": {
        "list": [{
            "builtIn": 1,
            "datasource": "-- Grafana --",
            "enable": true,
            "hide": true,
            "iconColor": "rgba(0, 211, 255, 1)",
            "name": "Annotations & Alerts",
            "type": "dashboard"
        }]
    },
    "editable": true,
    "gnetId": null,
    "graphTooltip": 0,
    "id": 2,
    "iteration": 1551541660752,
    "links": [],
    "panels": [{
            "collapsed": false,
            "gridPos": {
                "h": 1,
                "w": 24,
                "x": 0,
                "y": 0
            },
            "id": 2,
            "panels": [],
            "repeat": "ARKINSTANCE",
            "scopedVars": {
                "ARKINSTANCE": {
                    "selected": false,
                    "text": "ARK (Aberration_P)",
                    "value": "ARK (Aberration_P)"
                }
            },
            "title": "$ARKINSTANCE",
            "type": "row"
        },
        {
            "aliasColors": {},
            "bars": false,
            "dashLength": 10,
            "dashes": false,
            "fill": 1,
            "gridPos": {
                "h": 5,
                "w": 7,
                "x": 0,
                "y": 1
            },
            "id": 9,
            "legend": {
                "avg": false,
                "current": false,
                "max": false,
                "min": false,
                "show": true,
                "total": false,
                "values": false
            },
            "lines": true,
            "linewidth": 1,
            "links": [],
            "nullPointMode": "null",
            "paceLength": 10,
            "percentage": false,
            "pointradius": 2,
            "points": false,
            "renderer": "flot",
            "scopedVars": {
                "ARKINSTANCE": {
                    "selected": false,
                    "text": "ARK (Aberration_P)",
                    "value": "ARK (Aberration_P)"
                }
            },
            "seriesOverrides": [{
                "alias": "/context/",
                "yaxis": 2
            }],
            "stack": false,
            "steppedLine": false,
            "targets": [{
                    "expr": "rate(namedprocess_namegroup_cpu_user_seconds_total{groupname=~\"$ARKINSTANCE\"}[$INTERVAL])",
                    "format": "time_series",
                    "hide": false,
                    "intervalFactor": 1,
                    "legendFormat": "{{ groupname }}",
                    "refId": "A"
                },
                {
                    "expr": "rate(namedprocess_namegroup_context_switches_total{groupname=~\"$ARKINSTANCE\"}[$INTERVAL])",
                    "format": "time_series",
                    "intervalFactor": 1,
                    "legendFormat": "{{ ctxswitchtype }} context switch",
                    "refId": "B"
                }
            ],
            "thresholds": [],
            "timeFrom": null,
            "timeRegions": [],
            "timeShift": null,
            "title": "CPU",
            "tooltip": {
                "shared": true,
                "sort": 0,
                "value_type": "individual"
            },
            "type": "graph",
            "xaxis": {
                "buckets": null,
                "mode": "time",
                "name": null,
                "show": true,
                "values": []
            },
            "yaxes": [{
                    "format": "percentunit",
                    "label": null,
                    "logBase": 1,
                    "max": null,
                    "min": null,
                    "show": true
                },
                {
                    "format": "short",
                    "label": null,
                    "logBase": 1,
                    "max": null,
                    "min": null,
                    "show": true
                }
            ],
            "yaxis": {
                "align": false,
                "alignLevel": null
            }
        },
        {
            "aliasColors": {
                "major page faults": "dark-purple",
                "minor page faults": "super-light-purple",
                "swapped": "dark-red"
            },
            "bars": false,
            "dashLength": 10,
            "dashes": false,
            "fill": 1,
            "gridPos": {
                "h": 5,
                "w": 8,
                "x": 7,
                "y": 1
            },
            "id": 20,
            "legend": {
                "avg": false,
                "current": false,
                "max": false,
                "min": false,
                "show": true,
                "total": false,
                "values": false
            },
            "lines": true,
            "linewidth": 1,
            "links": [],
            "nullPointMode": "null",
            "paceLength": 10,
            "percentage": false,
            "pointradius": 2,
            "points": false,
            "renderer": "flot",
            "scopedVars": {
                "ARKINSTANCE": {
                    "selected": false,
                    "text": "ARK (Aberration_P)",
                    "value": "ARK (Aberration_P)"
                }
            },
            "seriesOverrides": [{
                "alias": "/faults/",
                "yaxis": 2
            }],
            "stack": false,
            "steppedLine": false,
            "targets": [{
                    "expr": "namedprocess_namegroup_memory_bytes{groupname=~\"$ARKINSTANCE\"}",
                    "format": "time_series",
                    "hide": false,
                    "intervalFactor": 1,
                    "legendFormat": "{{ memtype }}",
                    "refId": "A"
                },
                {
                    "expr": "rate(namedprocess_namegroup_major_page_faults_total{groupname=~\"$ARKINSTANCE\"}[$INTERVAL])",
                    "format": "time_series",
                    "hide": false,
                    "intervalFactor": 1,
                    "legendFormat": "major page faults",
                    "refId": "B"
                },
                {
                    "expr": "rate(namedprocess_namegroup_minor_page_faults_total{groupname=~\"$ARKINSTANCE\"}[$INTERVAL])",
                    "format": "time_series",
                    "hide": false,
                    "intervalFactor": 1,
                    "legendFormat": "minor page faults",
                    "refId": "C"
                }
            ],
            "thresholds": [],
            "timeFrom": null,
            "timeRegions": [],
            "timeShift": null,
            "title": "Memory",
            "tooltip": {
                "shared": true,
                "sort": 0,
                "value_type": "individual"
            },
            "type": "graph",
            "xaxis": {
                "buckets": null,
                "mode": "time",
                "name": null,
                "show": true,
                "values": []
            },
            "yaxes": [{
                    "format": "bytes",
                    "label": null,
                    "logBase": 1,
                    "max": null,
                    "min": null,
                    "show": true
                },
                {
                    "format": "short",
                    "label": null,
                    "logBase": 1,
                    "max": null,
                    "min": null,
                    "show": true
                }
            ],
            "yaxis": {
                "align": false,
                "alignLevel": null
            }
        },
        {
            "aliasColors": {
                "major page faults": "dark-purple",
                "minor page faults": "super-light-purple",
                "swapped": "dark-red"
            },
            "bars": false,
            "dashLength": 10,
            "dashes": false,
            "fill": 1,
            "gridPos": {
                "h": 5,
                "w": 9,
                "x": 15,
                "y": 1
            },
            "id": 21,
            "legend": {
                "avg": false,
                "current": false,
                "max": false,
                "min": false,
                "show": true,
                "total": false,
                "values": false
            },
            "lines": true,
            "linewidth": 1,
            "links": [],
            "nullPointMode": "null",
            "paceLength": 10,
            "percentage": false,
            "pointradius": 2,
            "points": false,
            "renderer": "flot",
            "scopedVars": {
                "ARKINSTANCE": {
                    "selected": false,
                    "text": "ARK (Aberration_P)",
                    "value": "ARK (Aberration_P)"
                }
            },
            "seriesOverrides": [{
                "alias": "/read/",
                "yaxis": 2
            }],
            "stack": false,
            "steppedLine": false,
            "targets": [{
                    "expr": "rate(namedprocess_namegroup_write_bytes_total{groupname=~\"$ARKINSTANCE\"}[$INTERVAL])",
                    "format": "time_series",
                    "hide": false,
                    "intervalFactor": 1,
                    "legendFormat": "{{ groupname }} write",
                    "refId": "A"
                },
                {
                    "expr": "rate(namedprocess_namegroup_read_bytes_total{groupname=~\"$ARKINSTANCE\"}[$INTERVAL])",
                    "format": "time_series",
                    "hide": false,
                    "intervalFactor": 1,
                    "legendFormat": "{{ groupname }} read",
                    "refId": "B"
                }
            ],
            "thresholds": [],
            "timeFrom": null,
            "timeRegions": [],
            "timeShift": null,
            "title": "Disk",
            "tooltip": {
                "shared": true,
                "sort": 0,
                "value_type": "individual"
            },
            "type": "graph",
            "xaxis": {
                "buckets": null,
                "mode": "time",
                "name": null,
                "show": true,
                "values": []
            },
            "yaxes": [{
                    "format": "bytes",
                    "label": null,
                    "logBase": 1,
                    "max": null,
                    "min": null,
                    "show": true
                },
                {
                    "format": "bytes",
                    "label": null,
                    "logBase": 1,
                    "max": null,
                    "min": null,
                    "show": true
                }
            ],
            "yaxis": {
                "align": false,
                "alignLevel": null
            }
        },
        {
            "collapsed": false,
            "gridPos": {
                "h": 1,
                "w": 24,
                "x": 0,
                "y": 6
            },
            "id": 22,
            "panels": [],
            "repeat": null,
            "repeatIteration": 1551541660752,
            "repeatPanelId": 2,
            "scopedVars": {
                "ARKINSTANCE": {
                    "selected": false,
                    "text": "ARK (CrystalIsles)",
                    "value": "ARK (CrystalIsles)"
                }
            },
            "title": "$ARKINSTANCE",
            "type": "row"
        },
        {
            "aliasColors": {},
            "bars": false,
            "dashLength": 10,
            "dashes": false,
            "fill": 1,
            "gridPos": {
                "h": 5,
                "w": 7,
                "x": 0,
                "y": 7
            },
            "id": 23,
            "legend": {
                "avg": false,
                "current": false,
                "max": false,
                "min": false,
                "show": true,
                "total": false,
                "values": false
            },
            "lines": true,
            "linewidth": 1,
            "links": [],
            "nullPointMode": "null",
            "paceLength": 10,
            "percentage": false,
            "pointradius": 2,
            "points": false,
            "renderer": "flot",
            "repeatIteration": 1551541660752,
            "repeatPanelId": 9,
            "repeatedByRow": true,
            "scopedVars": {
                "ARKINSTANCE": {
                    "selected": false,
                    "text": "ARK (CrystalIsles)",
                    "value": "ARK (CrystalIsles)"
                }
            },
            "seriesOverrides": [{
                "alias": "/context/",
                "yaxis": 2
            }],
            "stack": false,
            "steppedLine": false,
            "targets": [{
                    "expr": "rate(namedprocess_namegroup_cpu_user_seconds_total{groupname=~\"$ARKINSTANCE\"}[$INTERVAL])",
                    "format": "time_series",
                    "hide": false,
                    "intervalFactor": 1,
                    "legendFormat": "{{ groupname }}",
                    "refId": "A"
                },
                {
                    "expr": "rate(namedprocess_namegroup_context_switches_total{groupname=~\"$ARKINSTANCE\"}[$INTERVAL])",
                    "format": "time_series",
                    "intervalFactor": 1,
                    "legendFormat": "{{ ctxswitchtype }} context switch",
                    "refId": "B"
                }
            ],
            "thresholds": [],
            "timeFrom": null,
            "timeRegions": [],
            "timeShift": null,
            "title": "CPU",
            "tooltip": {
                "shared": true,
                "sort": 0,
                "value_type": "individual"
            },
            "type": "graph",
            "xaxis": {
                "buckets": null,
                "mode": "time",
                "name": null,
                "show": true,
                "values": []
            },
            "yaxes": [{
                    "format": "percentunit",
                    "label": null,
                    "logBase": 1,
                    "max": null,
                    "min": null,
                    "show": true
                },
                {
                    "format": "short",
                    "label": null,
                    "logBase": 1,
                    "max": null,
                    "min": null,
                    "show": true
                }
            ],
            "yaxis": {
                "align": false,
                "alignLevel": null
            }
        },
        {
            "aliasColors": {
                "major page faults": "dark-purple",
                "minor page faults": "super-light-purple",
                "swapped": "dark-red"
            },
            "bars": false,
            "dashLength": 10,
            "dashes": false,
            "fill": 1,
            "gridPos": {
                "h": 5,
                "w": 8,
                "x": 7,
                "y": 7
            },
            "id": 24,
            "legend": {
                "avg": false,
                "current": false,
                "max": false,
                "min": false,
                "show": true,
                "total": false,
                "values": false
            },
            "lines": true,
            "linewidth": 1,
            "links": [],
            "nullPointMode": "null",
            "paceLength": 10,
            "percentage": false,
            "pointradius": 2,
            "points": false,
            "renderer": "flot",
            "repeatIteration": 1551541660752,
            "repeatPanelId": 20,
            "repeatedByRow": true,
            "scopedVars": {
                "ARKINSTANCE": {
                    "selected": false,
                    "text": "ARK (CrystalIsles)",
                    "value": "ARK (CrystalIsles)"
                }
            },
            "seriesOverrides": [{
                "alias": "/faults/",
                "yaxis": 2
            }],
            "stack": false,
            "steppedLine": false,
            "targets": [{
                    "expr": "namedprocess_namegroup_memory_bytes{groupname=~\"$ARKINSTANCE\"}",
                    "format": "time_series",
                    "hide": false,
                    "intervalFactor": 1,
                    "legendFormat": "{{ memtype }}",
                    "refId": "A"
                },
                {
                    "expr": "rate(namedprocess_namegroup_major_page_faults_total{groupname=~\"$ARKINSTANCE\"}[$INTERVAL])",
                    "format": "time_series",
                    "hide": false,
                    "intervalFactor": 1,
                    "legendFormat": "major page faults",
                    "refId": "B"
                },
                {
                    "expr": "rate(namedprocess_namegroup_minor_page_faults_total{groupname=~\"$ARKINSTANCE\"}[$INTERVAL])",
                    "format": "time_series",
                    "hide": false,
                    "intervalFactor": 1,
                    "legendFormat": "minor page faults",
                    "refId": "C"
                }
            ],
            "thresholds": [],
            "timeFrom": null,
            "timeRegions": [],
            "timeShift": null,
            "title": "Memory",
            "tooltip": {
                "shared": true,
                "sort": 0,
                "value_type": "individual"
            },
            "type": "graph",
            "xaxis": {
                "buckets": null,
                "mode": "time",
                "name": null,
                "show": true,
                "values": []
            },
            "yaxes": [{
                    "format": "bytes",
                    "label": null,
                    "logBase": 1,
                    "max": null,
                    "min": null,
                    "show": true
                },
                {
                    "format": "short",
                    "label": null,
                    "logBase": 1,
                    "max": null,
                    "min": null,
                    "show": true
                }
            ],
            "yaxis": {
                "align": false,
                "alignLevel": null
            }
        },
        {
            "aliasColors": {
                "major page faults": "dark-purple",
                "minor page faults": "super-light-purple",
                "swapped": "dark-red"
            },
            "bars": false,
            "dashLength": 10,
            "dashes": false,
            "fill": 1,
            "gridPos": {
                "h": 5,
                "w": 9,
                "x": 15,
                "y": 7
            },
            "id": 25,
            "legend": {
                "avg": false,
                "current": false,
                "max": false,
                "min": false,
                "show": true,
                "total": false,
                "values": false
            },
            "lines": true,
            "linewidth": 1,
            "links": [],
            "nullPointMode": "null",
            "paceLength": 10,
            "percentage": false,
            "pointradius": 2,
            "points": false,
            "renderer": "flot",
            "repeatIteration": 1551541660752,
            "repeatPanelId": 21,
            "repeatedByRow": true,
            "scopedVars": {
                "ARKINSTANCE": {
                    "selected": false,
                    "text": "ARK (CrystalIsles)",
                    "value": "ARK (CrystalIsles)"
                }
            },
            "seriesOverrides": [{
                "alias": "/read/",
                "yaxis": 2
            }],
            "stack": false,
            "steppedLine": false,
            "targets": [{
                    "expr": "rate(namedprocess_namegroup_write_bytes_total{groupname=~\"$ARKINSTANCE\"}[$INTERVAL])",
                    "format": "time_series",
                    "hide": false,
                    "intervalFactor": 1,
                    "legendFormat": "{{ groupname }} write",
                    "refId": "A"
                },
                {
                    "expr": "rate(namedprocess_namegroup_read_bytes_total{groupname=~\"$ARKINSTANCE\"}[$INTERVAL])",
                    "format": "time_series",
                    "hide": false,
                    "intervalFactor": 1,
                    "legendFormat": "{{ groupname }} read",
                    "refId": "B"
                }
            ],
            "thresholds": [],
            "timeFrom": null,
            "timeRegions": [],
            "timeShift": null,
            "title": "Disk",
            "tooltip": {
                "shared": true,
                "sort": 0,
                "value_type": "individual"
            },
            "type": "graph",
            "xaxis": {
                "buckets": null,
                "mode": "time",
                "name": null,
                "show": true,
                "values": []
            },
            "yaxes": [{
                    "format": "bytes",
                    "label": null,
                    "logBase": 1,
                    "max": null,
                    "min": null,
                    "show": true
                },
                {
                    "format": "bytes",
                    "label": null,
                    "logBase": 1,
                    "max": null,
                    "min": null,
                    "show": true
                }
            ],
            "yaxis": {
                "align": false,
                "alignLevel": null
            }
        },
        {
            "collapsed": false,
            "gridPos": {
                "h": 1,
                "w": 24,
                "x": 0,
                "y": 12
            },
            "id": 26,
            "panels": [],
            "repeat": null,
            "repeatIteration": 1551541660752,
            "repeatPanelId": 2,
            "scopedVars": {
                "ARKINSTANCE": {
                    "selected": false,
                    "text": "ARK (Extinction)",
                    "value": "ARK (Extinction)"
                }
            },
            "title": "$ARKINSTANCE",
            "type": "row"
        },
        {
            "aliasColors": {},
            "bars": false,
            "dashLength": 10,
            "dashes": false,
            "fill": 1,
            "gridPos": {
                "h": 5,
                "w": 7,
                "x": 0,
                "y": 13
            },
            "id": 27,
            "legend": {
                "avg": false,
                "current": false,
                "max": false,
                "min": false,
                "show": true,
                "total": false,
                "values": false
            },
            "lines": true,
            "linewidth": 1,
            "links": [],
            "nullPointMode": "null",
            "paceLength": 10,
            "percentage": false,
            "pointradius": 2,
            "points": false,
            "renderer": "flot",
            "repeatIteration": 1551541660752,
            "repeatPanelId": 9,
            "repeatedByRow": true,
            "scopedVars": {
                "ARKINSTANCE": {
                    "selected": false,
                    "text": "ARK (Extinction)",
                    "value": "ARK (Extinction)"
                }
            },
            "seriesOverrides": [{
                "alias": "/context/",
                "yaxis": 2
            }],
            "stack": false,
            "steppedLine": false,
            "targets": [{
                    "expr": "rate(namedprocess_namegroup_cpu_user_seconds_total{groupname=~\"$ARKINSTANCE\"}[$INTERVAL])",
                    "format": "time_series",
                    "hide": false,
                    "intervalFactor": 1,
                    "legendFormat": "{{ groupname }}",
                    "refId": "A"
                },
                {
                    "expr": "rate(namedprocess_namegroup_context_switches_total{groupname=~\"$ARKINSTANCE\"}[$INTERVAL])",
                    "format": "time_series",
                    "intervalFactor": 1,
                    "legendFormat": "{{ ctxswitchtype }} context switch",
                    "refId": "B"
                }
            ],
            "thresholds": [],
            "timeFrom": null,
            "timeRegions": [],
            "timeShift": null,
            "title": "CPU",
            "tooltip": {
                "shared": true,
                "sort": 0,
                "value_type": "individual"
            },
            "type": "graph",
            "xaxis": {
                "buckets": null,
                "mode": "time",
                "name": null,
                "show": true,
                "values": []
            },
            "yaxes": [{
                    "format": "percentunit",
                    "label": null,
                    "logBase": 1,
                    "max": null,
                    "min": null,
                    "show": true
                },
                {
                    "format": "short",
                    "label": null,
                    "logBase": 1,
                    "max": null,
                    "min": null,
                    "show": true
                }
            ],
            "yaxis": {
                "align": false,
                "alignLevel": null
            }
        },
        {
            "aliasColors": {
                "major page faults": "dark-purple",
                "minor page faults": "super-light-purple",
                "swapped": "dark-red"
            },
            "bars": false,
            "dashLength": 10,
            "dashes": false,
            "fill": 1,
            "gridPos": {
                "h": 5,
                "w": 8,
                "x": 7,
                "y": 13
            },
            "id": 28,
            "legend": {
                "avg": false,
                "current": false,
                "max": false,
                "min": false,
                "show": true,
                "total": false,
                "values": false
            },
            "lines": true,
            "linewidth": 1,
            "links": [],
            "nullPointMode": "null",
            "paceLength": 10,
            "percentage": false,
            "pointradius": 2,
            "points": false,
            "renderer": "flot",
            "repeatIteration": 1551541660752,
            "repeatPanelId": 20,
            "repeatedByRow": true,
            "scopedVars": {
                "ARKINSTANCE": {
                    "selected": false,
                    "text": "ARK (Extinction)",
                    "value": "ARK (Extinction)"
                }
            },
            "seriesOverrides": [{
                "alias": "/faults/",
                "yaxis": 2
            }],
            "stack": false,
            "steppedLine": false,
            "targets": [{
                    "expr": "namedprocess_namegroup_memory_bytes{groupname=~\"$ARKINSTANCE\"}",
                    "format": "time_series",
                    "hide": false,
                    "intervalFactor": 1,
                    "legendFormat": "{{ memtype }}",
                    "refId": "A"
                },
                {
                    "expr": "rate(namedprocess_namegroup_major_page_faults_total{groupname=~\"$ARKINSTANCE\"}[$INTERVAL])",
                    "format": "time_series",
                    "hide": false,
                    "intervalFactor": 1,
                    "legendFormat": "major page faults",
                    "refId": "B"
                },
                {
                    "expr": "rate(namedprocess_namegroup_minor_page_faults_total{groupname=~\"$ARKINSTANCE\"}[$INTERVAL])",
                    "format": "time_series",
                    "hide": false,
                    "intervalFactor": 1,
                    "legendFormat": "minor page faults",
                    "refId": "C"
                }
            ],
            "thresholds": [],
            "timeFrom": null,
            "timeRegions": [],
            "timeShift": null,
            "title": "Memory",
            "tooltip": {
                "shared": true,
                "sort": 0,
                "value_type": "individual"
            },
            "type": "graph",
            "xaxis": {
                "buckets": null,
                "mode": "time",
                "name": null,
                "show": true,
                "values": []
            },
            "yaxes": [{
                    "format": "bytes",
                    "label": null,
                    "logBase": 1,
                    "max": null,
                    "min": null,
                    "show": true
                },
                {
                    "format": "short",
                    "label": null,
                    "logBase": 1,
                    "max": null,
                    "min": null,
                    "show": true
                }
            ],
            "yaxis": {
                "align": false,
                "alignLevel": null
            }
        },
        {
            "aliasColors": {
                "major page faults": "dark-purple",
                "minor page faults": "super-light-purple",
                "swapped": "dark-red"
            },
            "bars": false,
            "dashLength": 10,
            "dashes": false,
            "fill": 1,
            "gridPos": {
                "h": 5,
                "w": 9,
                "x": 15,
                "y": 13
            },
            "id": 29,
            "legend": {
                "avg": false,
                "current": false,
                "max": false,
                "min": false,
                "show": true,
                "total": false,
                "values": false
            },
            "lines": true,
            "linewidth": 1,
            "links": [],
            "nullPointMode": "null",
            "paceLength": 10,
            "percentage": false,
            "pointradius": 2,
            "points": false,
            "renderer": "flot",
            "repeatIteration": 1551541660752,
            "repeatPanelId": 21,
            "repeatedByRow": true,
            "scopedVars": {
                "ARKINSTANCE": {
                    "selected": false,
                    "text": "ARK (Extinction)",
                    "value": "ARK (Extinction)"
                }
            },
            "seriesOverrides": [{
                "alias": "/read/",
                "yaxis": 2
            }],
            "stack": false,
            "steppedLine": false,
            "targets": [{
                    "expr": "rate(namedprocess_namegroup_write_bytes_total{groupname=~\"$ARKINSTANCE\"}[$INTERVAL])",
                    "format": "time_series",
                    "hide": false,
                    "intervalFactor": 1,
                    "legendFormat": "{{ groupname }} write",
                    "refId": "A"
                },
                {
                    "expr": "rate(namedprocess_namegroup_read_bytes_total{groupname=~\"$ARKINSTANCE\"}[$INTERVAL])",
                    "format": "time_series",
                    "hide": false,
                    "intervalFactor": 1,
                    "legendFormat": "{{ groupname }} read",
                    "refId": "B"
                }
            ],
            "thresholds": [],
            "timeFrom": null,
            "timeRegions": [],
            "timeShift": null,
            "title": "Disk",
            "tooltip": {
                "shared": true,
                "sort": 0,
                "value_type": "individual"
            },
            "type": "graph",
            "xaxis": {
                "buckets": null,
                "mode": "time",
                "name": null,
                "show": true,
                "values": []
            },
            "yaxes": [{
                    "format": "bytes",
                    "label": null,
                    "logBase": 1,
                    "max": null,
                    "min": null,
                    "show": true
                },
                {
                    "format": "bytes",
                    "label": null,
                    "logBase": 1,
                    "max": null,
                    "min": null,
                    "show": true
                }
            ],
            "yaxis": {
                "align": false,
                "alignLevel": null
            }
        },
        {
            "collapsed": false,
            "gridPos": {
                "h": 1,
                "w": 24,
                "x": 0,
                "y": 18
            },
            "id": 30,
            "panels": [],
            "repeat": null,
            "repeatIteration": 1551541660752,
            "repeatPanelId": 2,
            "scopedVars": {
                "ARKINSTANCE": {
                    "selected": false,
                    "text": "ARK (Ragnarok)",
                    "value": "ARK (Ragnarok)"
                }
            },
            "title": "$ARKINSTANCE",
            "type": "row"
        },
        {
            "aliasColors": {},
            "bars": false,
            "dashLength": 10,
            "dashes": false,
            "fill": 1,
            "gridPos": {
                "h": 5,
                "w": 7,
                "x": 0,
                "y": 19
            },
            "id": 31,
            "legend": {
                "avg": false,
                "current": false,
                "max": false,
                "min": false,
                "show": true,
                "total": false,
                "values": false
            },
            "lines": true,
            "linewidth": 1,
            "links": [],
            "nullPointMode": "null",
            "paceLength": 10,
            "percentage": false,
            "pointradius": 2,
            "points": false,
            "renderer": "flot",
            "repeatIteration": 1551541660752,
            "repeatPanelId": 9,
            "repeatedByRow": true,
            "scopedVars": {
                "ARKINSTANCE": {
                    "selected": false,
                    "text": "ARK (Ragnarok)",
                    "value": "ARK (Ragnarok)"
                }
            },
            "seriesOverrides": [{
                "alias": "/context/",
                "yaxis": 2
            }],
            "stack": false,
            "steppedLine": false,
            "targets": [{
                    "expr": "rate(namedprocess_namegroup_cpu_user_seconds_total{groupname=~\"$ARKINSTANCE\"}[$INTERVAL])",
                    "format": "time_series",
                    "hide": false,
                    "intervalFactor": 1,
                    "legendFormat": "{{ groupname }}",
                    "refId": "A"
                },
                {
                    "expr": "rate(namedprocess_namegroup_context_switches_total{groupname=~\"$ARKINSTANCE\"}[$INTERVAL])",
                    "format": "time_series",
                    "intervalFactor": 1,
                    "legendFormat": "{{ ctxswitchtype }} context switch",
                    "refId": "B"
                }
            ],
            "thresholds": [],
            "timeFrom": null,
            "timeRegions": [],
            "timeShift": null,
            "title": "CPU",
            "tooltip": {
                "shared": true,
                "sort": 0,
                "value_type": "individual"
            },
            "type": "graph",
            "xaxis": {
                "buckets": null,
                "mode": "time",
                "name": null,
                "show": true,
                "values": []
            },
            "yaxes": [{
                    "format": "percentunit",
                    "label": null,
                    "logBase": 1,
                    "max": null,
                    "min": null,
                    "show": true
                },
                {
                    "format": "short",
                    "label": null,
                    "logBase": 1,
                    "max": null,
                    "min": null,
                    "show": true
                }
            ],
            "yaxis": {
                "align": false,
                "alignLevel": null
            }
        },
        {
            "aliasColors": {
                "major page faults": "dark-purple",
                "minor page faults": "super-light-purple",
                "swapped": "dark-red"
            },
            "bars": false,
            "dashLength": 10,
            "dashes": false,
            "fill": 1,
            "gridPos": {
                "h": 5,
                "w": 8,
                "x": 7,
                "y": 19
            },
            "id": 32,
            "legend": {
                "avg": false,
                "current": false,
                "max": false,
                "min": false,
                "show": true,
                "total": false,
                "values": false
            },
            "lines": true,
            "linewidth": 1,
            "links": [],
            "nullPointMode": "null",
            "paceLength": 10,
            "percentage": false,
            "pointradius": 2,
            "points": false,
            "renderer": "flot",
            "repeatIteration": 1551541660752,
            "repeatPanelId": 20,
            "repeatedByRow": true,
            "scopedVars": {
                "ARKINSTANCE": {
                    "selected": false,
                    "text": "ARK (Ragnarok)",
                    "value": "ARK (Ragnarok)"
                }
            },
            "seriesOverrides": [{
                "alias": "/faults/",
                "yaxis": 2
            }],
            "stack": false,
            "steppedLine": false,
            "targets": [{
                    "expr": "namedprocess_namegroup_memory_bytes{groupname=~\"$ARKINSTANCE\"}",
                    "format": "time_series",
                    "hide": false,
                    "intervalFactor": 1,
                    "legendFormat": "{{ memtype }}",
                    "refId": "A"
                },
                {
                    "expr": "rate(namedprocess_namegroup_major_page_faults_total{groupname=~\"$ARKINSTANCE\"}[$INTERVAL])",
                    "format": "time_series",
                    "hide": false,
                    "intervalFactor": 1,
                    "legendFormat": "major page faults",
                    "refId": "B"
                },
                {
                    "expr": "rate(namedprocess_namegroup_minor_page_faults_total{groupname=~\"$ARKINSTANCE\"}[$INTERVAL])",
                    "format": "time_series",
                    "hide": false,
                    "intervalFactor": 1,
                    "legendFormat": "minor page faults",
                    "refId": "C"
                }
            ],
            "thresholds": [],
            "timeFrom": null,
            "timeRegions": [],
            "timeShift": null,
            "title": "Memory",
            "tooltip": {
                "shared": true,
                "sort": 0,
                "value_type": "individual"
            },
            "type": "graph",
            "xaxis": {
                "buckets": null,
                "mode": "time",
                "name": null,
                "show": true,
                "values": []
            },
            "yaxes": [{
                    "format": "bytes",
                    "label": null,
                    "logBase": 1,
                    "max": null,
                    "min": null,
                    "show": true
                },
                {
                    "format": "short",
                    "label": null,
                    "logBase": 1,
                    "max": null,
                    "min": null,
                    "show": true
                }
            ],
            "yaxis": {
                "align": false,
                "alignLevel": null
            }
        },
        {
            "aliasColors": {
                "major page faults": "dark-purple",
                "minor page faults": "super-light-purple",
                "swapped": "dark-red"
            },
            "bars": false,
            "dashLength": 10,
            "dashes": false,
            "fill": 1,
            "gridPos": {
                "h": 5,
                "w": 9,
                "x": 15,
                "y": 19
            },
            "id": 33,
            "legend": {
                "avg": false,
                "current": false,
                "max": false,
                "min": false,
                "show": true,
                "total": false,
                "values": false
            },
            "lines": true,
            "linewidth": 1,
            "links": [],
            "nullPointMode": "null",
            "paceLength": 10,
            "percentage": false,
            "pointradius": 2,
            "points": false,
            "renderer": "flot",
            "repeatIteration": 1551541660752,
            "repeatPanelId": 21,
            "repeatedByRow": true,
            "scopedVars": {
                "ARKINSTANCE": {
                    "selected": false,
                    "text": "ARK (Ragnarok)",
                    "value": "ARK (Ragnarok)"
                }
            },
            "seriesOverrides": [{
                "alias": "/read/",
                "yaxis": 2
            }],
            "stack": false,
            "steppedLine": false,
            "targets": [{
                    "expr": "rate(namedprocess_namegroup_write_bytes_total{groupname=~\"$ARKINSTANCE\"}[$INTERVAL])",
                    "format": "time_series",
                    "hide": false,
                    "intervalFactor": 1,
                    "legendFormat": "{{ groupname }} write",
                    "refId": "A"
                },
                {
                    "expr": "rate(namedprocess_namegroup_read_bytes_total{groupname=~\"$ARKINSTANCE\"}[$INTERVAL])",
                    "format": "time_series",
                    "hide": false,
                    "intervalFactor": 1,
                    "legendFormat": "{{ groupname }} read",
                    "refId": "B"
                }
            ],
            "thresholds": [],
            "timeFrom": null,
            "timeRegions": [],
            "timeShift": null,
            "title": "Disk",
            "tooltip": {
                "shared": true,
                "sort": 0,
                "value_type": "individual"
            },
            "type": "graph",
            "xaxis": {
                "buckets": null,
                "mode": "time",
                "name": null,
                "show": true,
                "values": []
            },
            "yaxes": [{
                    "format": "bytes",
                    "label": null,
                    "logBase": 1,
                    "max": null,
                    "min": null,
                    "show": true
                },
                {
                    "format": "bytes",
                    "label": null,
                    "logBase": 1,
                    "max": null,
                    "min": null,
                    "show": true
                }
            ],
            "yaxis": {
                "align": false,
                "alignLevel": null
            }
        },
        {
            "collapsed": false,
            "gridPos": {
                "h": 1,
                "w": 24,
                "x": 0,
                "y": 24
            },
            "id": 34,
            "panels": [],
            "repeat": null,
            "repeatIteration": 1551541660752,
            "repeatPanelId": 2,
            "scopedVars": {
                "ARKINSTANCE": {
                    "selected": false,
                    "text": "ARK (ScorchedEarth_P)",
                    "value": "ARK (ScorchedEarth_P)"
                }
            },
            "title": "$ARKINSTANCE",
            "type": "row"
        },
        {
            "aliasColors": {},
            "bars": false,
            "dashLength": 10,
            "dashes": false,
            "fill": 1,
            "gridPos": {
                "h": 5,
                "w": 7,
                "x": 0,
                "y": 25
            },
            "id": 35,
            "legend": {
                "avg": false,
                "current": false,
                "max": false,
                "min": false,
                "show": true,
                "total": false,
                "values": false
            },
            "lines": true,
            "linewidth": 1,
            "links": [],
            "nullPointMode": "null",
            "paceLength": 10,
            "percentage": false,
            "pointradius": 2,
            "points": false,
            "renderer": "flot",
            "repeatIteration": 1551541660752,
            "repeatPanelId": 9,
            "repeatedByRow": true,
            "scopedVars": {
                "ARKINSTANCE": {
                    "selected": false,
                    "text": "ARK (ScorchedEarth_P)",
                    "value": "ARK (ScorchedEarth_P)"
                }
            },
            "seriesOverrides": [{
                "alias": "/context/",
                "yaxis": 2
            }],
            "stack": false,
            "steppedLine": false,
            "targets": [{
                    "expr": "rate(namedprocess_namegroup_cpu_user_seconds_total{groupname=~\"$ARKINSTANCE\"}[$INTERVAL])",
                    "format": "time_series",
                    "hide": false,
                    "intervalFactor": 1,
                    "legendFormat": "{{ groupname }}",
                    "refId": "A"
                },
                {
                    "expr": "rate(namedprocess_namegroup_context_switches_total{groupname=~\"$ARKINSTANCE\"}[$INTERVAL])",
                    "format": "time_series",
                    "intervalFactor": 1,
                    "legendFormat": "{{ ctxswitchtype }} context switch",
                    "refId": "B"
                }
            ],
            "thresholds": [],
            "timeFrom": null,
            "timeRegions": [],
            "timeShift": null,
            "title": "CPU",
            "tooltip": {
                "shared": true,
                "sort": 0,
                "value_type": "individual"
            },
            "type": "graph",
            "xaxis": {
                "buckets": null,
                "mode": "time",
                "name": null,
                "show": true,
                "values": []
            },
            "yaxes": [{
                    "format": "percentunit",
                    "label": null,
                    "logBase": 1,
                    "max": null,
                    "min": null,
                    "show": true
                },
                {
                    "format": "short",
                    "label": null,
                    "logBase": 1,
                    "max": null,
                    "min": null,
                    "show": true
                }
            ],
            "yaxis": {
                "align": false,
                "alignLevel": null
            }
        },
        {
            "aliasColors": {
                "major page faults": "dark-purple",
                "minor page faults": "super-light-purple",
                "swapped": "dark-red"
            },
            "bars": false,
            "dashLength": 10,
            "dashes": false,
            "fill": 1,
            "gridPos": {
                "h": 5,
                "w": 8,
                "x": 7,
                "y": 25
            },
            "id": 36,
            "legend": {
                "avg": false,
                "current": false,
                "max": false,
                "min": false,
                "show": true,
                "total": false,
                "values": false
            },
            "lines": true,
            "linewidth": 1,
            "links": [],
            "nullPointMode": "null",
            "paceLength": 10,
            "percentage": false,
            "pointradius": 2,
            "points": false,
            "renderer": "flot",
            "repeatIteration": 1551541660752,
            "repeatPanelId": 20,
            "repeatedByRow": true,
            "scopedVars": {
                "ARKINSTANCE": {
                    "selected": false,
                    "text": "ARK (ScorchedEarth_P)",
                    "value": "ARK (ScorchedEarth_P)"
                }
            },
            "seriesOverrides": [{
                "alias": "/faults/",
                "yaxis": 2
            }],
            "stack": false,
            "steppedLine": false,
            "targets": [{
                    "expr": "namedprocess_namegroup_memory_bytes{groupname=~\"$ARKINSTANCE\"}",
                    "format": "time_series",
                    "hide": false,
                    "intervalFactor": 1,
                    "legendFormat": "{{ memtype }}",
                    "refId": "A"
                },
                {
                    "expr": "rate(namedprocess_namegroup_major_page_faults_total{groupname=~\"$ARKINSTANCE\"}[$INTERVAL])",
                    "format": "time_series",
                    "hide": false,
                    "intervalFactor": 1,
                    "legendFormat": "major page faults",
                    "refId": "B"
                },
                {
                    "expr": "rate(namedprocess_namegroup_minor_page_faults_total{groupname=~\"$ARKINSTANCE\"}[$INTERVAL])",
                    "format": "time_series",
                    "hide": false,
                    "intervalFactor": 1,
                    "legendFormat": "minor page faults",
                    "refId": "C"
                }
            ],
            "thresholds": [],
            "timeFrom": null,
            "timeRegions": [],
            "timeShift": null,
            "title": "Memory",
            "tooltip": {
                "shared": true,
                "sort": 0,
                "value_type": "individual"
            },
            "type": "graph",
            "xaxis": {
                "buckets": null,
                "mode": "time",
                "name": null,
                "show": true,
                "values": []
            },
            "yaxes": [{
                    "format": "bytes",
                    "label": null,
                    "logBase": 1,
                    "max": null,
                    "min": null,
                    "show": true
                },
                {
                    "format": "short",
                    "label": null,
                    "logBase": 1,
                    "max": null,
                    "min": null,
                    "show": true
                }
            ],
            "yaxis": {
                "align": false,
                "alignLevel": null
            }
        },
        {
            "aliasColors": {
                "major page faults": "dark-purple",
                "minor page faults": "super-light-purple",
                "swapped": "dark-red"
            },
            "bars": false,
            "dashLength": 10,
            "dashes": false,
            "fill": 1,
            "gridPos": {
                "h": 5,
                "w": 9,
                "x": 15,
                "y": 25
            },
            "id": 37,
            "legend": {
                "avg": false,
                "current": false,
                "max": false,
                "min": false,
                "show": true,
                "total": false,
                "values": false
            },
            "lines": true,
            "linewidth": 1,
            "links": [],
            "nullPointMode": "null",
            "paceLength": 10,
            "percentage": false,
            "pointradius": 2,
            "points": false,
            "renderer": "flot",
            "repeatIteration": 1551541660752,
            "repeatPanelId": 21,
            "repeatedByRow": true,
            "scopedVars": {
                "ARKINSTANCE": {
                    "selected": false,
                    "text": "ARK (ScorchedEarth_P)",
                    "value": "ARK (ScorchedEarth_P)"
                }
            },
            "seriesOverrides": [{
                "alias": "/read/",
                "yaxis": 2
            }],
            "stack": false,
            "steppedLine": false,
            "targets": [{
                    "expr": "rate(namedprocess_namegroup_write_bytes_total{groupname=~\"$ARKINSTANCE\"}[$INTERVAL])",
                    "format": "time_series",
                    "hide": false,
                    "intervalFactor": 1,
                    "legendFormat": "{{ groupname }} write",
                    "refId": "A"
                },
                {
                    "expr": "rate(namedprocess_namegroup_read_bytes_total{groupname=~\"$ARKINSTANCE\"}[$INTERVAL])",
                    "format": "time_series",
                    "hide": false,
                    "intervalFactor": 1,
                    "legendFormat": "{{ groupname }} read",
                    "refId": "B"
                }
            ],
            "thresholds": [],
            "timeFrom": null,
            "timeRegions": [],
            "timeShift": null,
            "title": "Disk",
            "tooltip": {
                "shared": true,
                "sort": 0,
                "value_type": "individual"
            },
            "type": "graph",
            "xaxis": {
                "buckets": null,
                "mode": "time",
                "name": null,
                "show": true,
                "values": []
            },
            "yaxes": [{
                    "format": "bytes",
                    "label": null,
                    "logBase": 1,
                    "max": null,
                    "min": null,
                    "show": true
                },
                {
                    "format": "bytes",
                    "label": null,
                    "logBase": 1,
                    "max": null,
                    "min": null,
                    "show": true
                }
            ],
            "yaxis": {
                "align": false,
                "alignLevel": null
            }
        },
        {
            "collapsed": false,
            "gridPos": {
                "h": 1,
                "w": 24,
                "x": 0,
                "y": 30
            },
            "id": 38,
            "panels": [],
            "repeat": null,
            "repeatIteration": 1551541660752,
            "repeatPanelId": 2,
            "scopedVars": {
                "ARKINSTANCE": {
                    "selected": false,
                    "text": "ARK (TheIsland)",
                    "value": "ARK (TheIsland)"
                }
            },
            "title": "$ARKINSTANCE",
            "type": "row"
        },
        {
            "aliasColors": {},
            "bars": false,
            "dashLength": 10,
            "dashes": false,
            "fill": 1,
            "gridPos": {
                "h": 5,
                "w": 7,
                "x": 0,
                "y": 31
            },
            "id": 39,
            "legend": {
                "avg": false,
                "current": false,
                "max": false,
                "min": false,
                "show": true,
                "total": false,
                "values": false
            },
            "lines": true,
            "linewidth": 1,
            "links": [],
            "nullPointMode": "null",
            "paceLength": 10,
            "percentage": false,
            "pointradius": 2,
            "points": false,
            "renderer": "flot",
            "repeatIteration": 1551541660752,
            "repeatPanelId": 9,
            "repeatedByRow": true,
            "scopedVars": {
                "ARKINSTANCE": {
                    "selected": false,
                    "text": "ARK (TheIsland)",
                    "value": "ARK (TheIsland)"
                }
            },
            "seriesOverrides": [{
                "alias": "/context/",
                "yaxis": 2
            }],
            "stack": false,
            "steppedLine": false,
            "targets": [{
                    "expr": "rate(namedprocess_namegroup_cpu_user_seconds_total{groupname=~\"$ARKINSTANCE\"}[$INTERVAL])",
                    "format": "time_series",
                    "hide": false,
                    "intervalFactor": 1,
                    "legendFormat": "{{ groupname }}",
                    "refId": "A"
                },
                {
                    "expr": "rate(namedprocess_namegroup_context_switches_total{groupname=~\"$ARKINSTANCE\"}[$INTERVAL])",
                    "format": "time_series",
                    "intervalFactor": 1,
                    "legendFormat": "{{ ctxswitchtype }} context switch",
                    "refId": "B"
                }
            ],
            "thresholds": [],
            "timeFrom": null,
            "timeRegions": [],
            "timeShift": null,
            "title": "CPU",
            "tooltip": {
                "shared": true,
                "sort": 0,
                "value_type": "individual"
            },
            "type": "graph",
            "xaxis": {
                "buckets": null,
                "mode": "time",
                "name": null,
                "show": true,
                "values": []
            },
            "yaxes": [{
                    "format": "percentunit",
                    "label": null,
                    "logBase": 1,
                    "max": null,
                    "min": null,
                    "show": true
                },
                {
                    "format": "short",
                    "label": null,
                    "logBase": 1,
                    "max": null,
                    "min": null,
                    "show": true
                }
            ],
            "yaxis": {
                "align": false,
                "alignLevel": null
            }
        },
        {
            "aliasColors": {
                "major page faults": "dark-purple",
                "minor page faults": "super-light-purple",
                "swapped": "dark-red"
            },
            "bars": false,
            "dashLength": 10,
            "dashes": false,
            "fill": 1,
            "gridPos": {
                "h": 5,
                "w": 8,
                "x": 7,
                "y": 31
            },
            "id": 40,
            "legend": {
                "avg": false,
                "current": false,
                "max": false,
                "min": false,
                "show": true,
                "total": false,
                "values": false
            },
            "lines": true,
            "linewidth": 1,
            "links": [],
            "nullPointMode": "null",
            "paceLength": 10,
            "percentage": false,
            "pointradius": 2,
            "points": false,
            "renderer": "flot",
            "repeatIteration": 1551541660752,
            "repeatPanelId": 20,
            "repeatedByRow": true,
            "scopedVars": {
                "ARKINSTANCE": {
                    "selected": false,
                    "text": "ARK (TheIsland)",
                    "value": "ARK (TheIsland)"
                }
            },
            "seriesOverrides": [{
                "alias": "/faults/",
                "yaxis": 2
            }],
            "stack": false,
            "steppedLine": false,
            "targets": [{
                    "expr": "namedprocess_namegroup_memory_bytes{groupname=~\"$ARKINSTANCE\"}",
                    "format": "time_series",
                    "hide": false,
                    "intervalFactor": 1,
                    "legendFormat": "{{ memtype }}",
                    "refId": "A"
                },
                {
                    "expr": "rate(namedprocess_namegroup_major_page_faults_total{groupname=~\"$ARKINSTANCE\"}[$INTERVAL])",
                    "format": "time_series",
                    "hide": false,
                    "intervalFactor": 1,
                    "legendFormat": "major page faults",
                    "refId": "B"
                },
                {
                    "expr": "rate(namedprocess_namegroup_minor_page_faults_total{groupname=~\"$ARKINSTANCE\"}[$INTERVAL])",
                    "format": "time_series",
                    "hide": false,
                    "intervalFactor": 1,
                    "legendFormat": "minor page faults",
                    "refId": "C"
                }
            ],
            "thresholds": [],
            "timeFrom": null,
            "timeRegions": [],
            "timeShift": null,
            "title": "Memory",
            "tooltip": {
                "shared": true,
                "sort": 0,
                "value_type": "individual"
            },
            "type": "graph",
            "xaxis": {
                "buckets": null,
                "mode": "time",
                "name": null,
                "show": true,
                "values": []
            },
            "yaxes": [{
                    "format": "bytes",
                    "label": null,
                    "logBase": 1,
                    "max": null,
                    "min": null,
                    "show": true
                },
                {
                    "format": "short",
                    "label": null,
                    "logBase": 1,
                    "max": null,
                    "min": null,
                    "show": true
                }
            ],
            "yaxis": {
                "align": false,
                "alignLevel": null
            }
        },
        {
            "aliasColors": {
                "major page faults": "dark-purple",
                "minor page faults": "super-light-purple",
                "swapped": "dark-red"
            },
            "bars": false,
            "dashLength": 10,
            "dashes": false,
            "fill": 1,
            "gridPos": {
                "h": 5,
                "w": 9,
                "x": 15,
                "y": 31
            },
            "id": 41,
            "legend": {
                "avg": false,
                "current": false,
                "max": false,
                "min": false,
                "show": true,
                "total": false,
                "values": false
            },
            "lines": true,
            "linewidth": 1,
            "links": [],
            "nullPointMode": "null",
            "paceLength": 10,
            "percentage": false,
            "pointradius": 2,
            "points": false,
            "renderer": "flot",
            "repeatIteration": 1551541660752,
            "repeatPanelId": 21,
            "repeatedByRow": true,
            "scopedVars": {
                "ARKINSTANCE": {
                    "selected": false,
                    "text": "ARK (TheIsland)",
                    "value": "ARK (TheIsland)"
                }
            },
            "seriesOverrides": [{
                "alias": "/read/",
                "yaxis": 2
            }],
            "stack": false,
            "steppedLine": false,
            "targets": [{
                    "expr": "rate(namedprocess_namegroup_write_bytes_total{groupname=~\"$ARKINSTANCE\"}[$INTERVAL])",
                    "format": "time_series",
                    "hide": false,
                    "intervalFactor": 1,
                    "legendFormat": "{{ groupname }} write",
                    "refId": "A"
                },
                {
                    "expr": "rate(namedprocess_namegroup_read_bytes_total{groupname=~\"$ARKINSTANCE\"}[$INTERVAL])",
                    "format": "time_series",
                    "hide": false,
                    "intervalFactor": 1,
                    "legendFormat": "{{ groupname }} read",
                    "refId": "B"
                }
            ],
            "thresholds": [],
            "timeFrom": null,
            "timeRegions": [],
            "timeShift": null,
            "title": "Disk",
            "tooltip": {
                "shared": true,
                "sort": 0,
                "value_type": "individual"
            },
            "type": "graph",
            "xaxis": {
                "buckets": null,
                "mode": "time",
                "name": null,
                "show": true,
                "values": []
            },
            "yaxes": [{
                    "format": "bytes",
                    "label": null,
                    "logBase": 1,
                    "max": null,
                    "min": null,
                    "show": true
                },
                {
                    "format": "bytes",
                    "label": null,
                    "logBase": 1,
                    "max": null,
                    "min": null,
                    "show": true
                }
            ],
            "yaxis": {
                "align": false,
                "alignLevel": null
            }
        }
    ],
    "schemaVersion": 18,
    "style": "dark",
    "tags": [
        "ark",
        "gaming"
    ],
    "templating": {
        "list": [{
                "allValue": null,
                "current": {
                    "tags": [],
                    "text": "All",
                    "value": [
                        "$__all"
                    ]
                },
                "datasource": "SevenSeas",
                "definition": "namedprocess_namegroup_memory_bytes",
                "hide": 0,
                "includeAll": true,
                "label": "ARK Server",
                "multi": true,
                "name": "ARKINSTANCE",
                "options": [{
                        "selected": true,
                        "text": "All",
                        "value": "$__all"
                    },
                    {
                        "selected": false,
                        "text": "ARK (Aberration_P)",
                        "value": "ARK (Aberration_P)"
                    },
                    {
                        "selected": false,
                        "text": "ARK (CrystalIsles)",
                        "value": "ARK (CrystalIsles)"
                    },
                    {
                        "selected": false,
                        "text": "ARK (Extinction)",
                        "value": "ARK (Extinction)"
                    },
                    {
                        "selected": false,
                        "text": "ARK (Ragnarok)",
                        "value": "ARK (Ragnarok)"
                    },
                    {
                        "selected": false,
                        "text": "ARK (ScorchedEarth_P)",
                        "value": "ARK (ScorchedEarth_P)"
                    },
                    {
                        "selected": false,
                        "text": "ARK (TheIsland)",
                        "value": "ARK (TheIsland)"
                    }
                ],
                "query": "namedprocess_namegroup_memory_bytes",
                "refresh": 0,
                "regex": "/.*groupname=\"(ARK[^\"]*).*/",
                "skipUrlSync": false,
                "sort": 0,
                "tagValuesQuery": "",
                "tags": [],
                "tagsQuery": "",
                "type": "query",
                "useTags": false
            },
            {
                "auto": false,
                "auto_count": 30,
                "auto_min": "15s",
                "current": {
                    "text": "1m",
                    "value": "1m"
                },
                "hide": 0,
                "label": "Interval",
                "name": "INTERVAL",
                "options": [{
                        "selected": true,
                        "text": "1m",
                        "value": "1m"
                    },
                    {
                        "selected": false,
                        "text": "10m",
                        "value": "10m"
                    },
                    {
                        "selected": false,
                        "text": "30m",
                        "value": "30m"
                    },
                    {
                        "selected": false,
                        "text": "1h",
                        "value": "1h"
                    },
                    {
                        "selected": false,
                        "text": "6h",
                        "value": "6h"
                    },
                    {
                        "selected": false,
                        "text": "12h",
                        "value": "12h"
                    },
                    {
                        "selected": false,
                        "text": "1d",
                        "value": "1d"
                    },
                    {
                        "selected": false,
                        "text": "7d",
                        "value": "7d"
                    },
                    {
                        "selected": false,
                        "text": "14d",
                        "value": "14d"
                    },
                    {
                        "selected": false,
                        "text": "30d",
                        "value": "30d"
                    }
                ],
                "query": "1m,10m,30m,1h,6h,12h,1d,7d,14d,30d",
                "refresh": 2,
                "skipUrlSync": false,
                "type": "interval"
            }
        ]
    },
    "time": {
        "from": "now-24h",
        "to": "now-1m"
    },
    "timepicker": {
        "nowDelay": "1m",
        "refresh_intervals": [
            "5s",
            "10s",
            "30s",
            "1m",
            "5m",
            "15m",
            "30m",
            "1h",
            "2h",
            "1d"
        ],
        "time_options": [
            "5m",
            "15m",
            "1h",
            "6h",
            "12h",
            "24h",
            "2d",
            "7d",
            "30d"
        ]
    },
    "timezone": "",
    "title": "ARK",
    "uid": "XrEF3j9ik",
    "version": 10
}